{
	"_id": "78106",
	"name": "HTML",
	"description": "Learn the basics and how to code.",
	"price" : 1000,
	"isActive": true,
	"slots" : 20,
	"enrollees" : ["26418"]

}

{
	"_id": "25638",
	"name": "CSS",
	"description": "Let's make our application look cool!",
	"price" : 2000,
	"isActive": false,
	"slots" : 20,
	"enrollees" : ["26418"]

}
{
	"_id": "22222",
	"name": "JavaScript",
	"description": "Make websites fun and interactive",
	"price" : 4000,
	"isActive": true,
	"slots" :15,
	"enrollees" : []

}